


================================
// Sample output of generateTurn('Teleport to a new location', 6, player, history)
================================

=================================
==========================
